{
    "key": "group_5db6b16c193a2",
    "title": "Vis scroll ikon",
    "fields": [
        {
            "key": "field_5db6b17674422",
            "label": "Vis scroll ikon",
            "name": "show_icon",
            "type": "true_false",
            "instructions": "Skal scroll ikonet vises på denne side? Ikonet bliver automatisk tilføjet, hvis der tilføjes et baggrundsbillede til sidehovedet samt på forsiden. Du kan vælge at vise ikonet uden et baggrundsbillede ved at checke denne box.",
            "required": 0,
            "conditional_logic": 0,
            "wrapper": {
                "width": "",
                "class": "",
                "id": ""
            },
            "message": "",
            "default_value": 0,
            "ui": 0,
            "ui_on_text": "",
            "ui_off_text": ""
        }
    ],
    "location": [
        [
            {
                "param": "post_type",
                "operator": "==",
                "value": "page"
            }
        ]
    ],
    "menu_order": 0,
    "position": "side",
    "style": "default",
    "label_placement": "top",
    "instruction_placement": "label",
    "hide_on_screen": "",
    "active": 1,
    "description": "",
    "modified": 1572254647
}